["aali@IHI.org",
  "abdulbari.mncsp@psks-gm.org",
  "abdullahal.mamun@savethechildren.org",
  "abdur.rahman@savethechildren.org",
  "abha@mail.harvard.edu",
  "abrooks@ihi.org",
  "abu.athar@savethechildren.org",
  "abu.shakil@savethechildren.org",
  "afsana.karim@savethechildren.org",
  "ahsanul74@gmail.com",
  "ajahar.mncsp@psks-gm.org",
  "ak-dutta@phd-bd.com",
  "akram.dascoh@gmail.com",
  "alam.mncsp@psks-gm.org",
  "ali@phd-bd.com",
  "almaruf84@yahoo.com",
  "alokananda.datta@dnet.org.bd",
  "altab@shimantik.com",
  "aminul0072@gmail.com",
  "andalib.haque@dnet.org.bd",
  "anik.mahamood@savethechildren.org",
  "anjuman.begum@savethechildren.org",
  "anwar.sohag@yahoo.com",
  "aporna.paramedic@gmail.com",
  "arafat.hasan@savethechildren.org",
  "arshad.hussain@savethechildren.org",
  "asad.mncsp@psks-gm.org",
  "a-salam @phd-bd.com",
  "ashad@phd-bd.com",
  "ashokmondol17@yahoo.com",
  "ashraful.mncsp@psks-gm.org",
  "atiquei@icddrb.org",
  "azad.mncsp@psks-gm.org",
  "aziz.khan@savethechildren.org",
  "bal.bhui@savethechildren.org",
  "bari@icddrb.org",
  "bb-mintu@phd-bd.com",
  "beautyakter2822@gmail.com",
  "beautykhatun9921@gmail.com",
  "bgucricmncsp@gmail.com",
  "bgufricmncsp@gmail.com",
  "billah@icddrb.org",
  "biswajithkumarsaha@yahoo.com",
  "bivakar.roy@savethechildren.org",
  "bkrana@qai.org.in",
  "bobitabiswas.dascoh@gmail.com",
  "bp.shakil2011@gmail.com",
  "bsmmukamal@gmail.com",
  "catherine@cohsasa.co.za",
  "cgucricmncsp@gmail.com",
  "cgufricmncsp@gmail.com",
  "chamili.mncsp@psks-gm.org",
  "chopola@phd-bd.com",
  "chtucricmncsp@gmail.com",
  "chtufricmncsp@gmail.com",
  "cjackson@IHI.org",
  "debashish.bhowmick@dnet.org.bd",
  "delwar.dascoh@gmail.com",
  "DewanAmir.Shohel@jhpiego.org",
  "dibbisash.dascoh@gmail.com",
  "dmfeniric@gmail.com",
  "dmnoakhaliric@gmail.com",
  "dr.sharminsume14@gmail.com",
  "easminsabina55@gmail.com",
  "ecalvert@IHI.org",
  "ehtesham.kabir@savethechildren.org",
  "Elizabeth.Oliveras@jhpiego.org",
  "emran.dascoh@gmail.com",
  "enayethossain10@gmail.com",
  "fahima.mncsp@psks-gm.org",
  "Farhad.Ahmed@jhpiego.org",
  "faridul.julfiker@savethechildren.org>",
  "faysalkabir.dascoh@gmail.com",
  "ferdousj363@gmail.com",
  "ffederico@ihi.org",
  "forhad@dnet.org.bd",
  "fyuh@ihi.org",
  "giel@cohsasa.co.za",
  "golam.mostofa@savethechildren.org",
  "gparry@ihi.org",
  "habib.mncsp@psks-gm.org",
  "hafiza.mncsp@psks-gm.org",
  "hanif.shaikh@savethechildren.org",
  "harej.almamun@savethechildren.org",
  "Harmony.Chai@jhpiego.org",
  "harun.mncsp@psks-gm.org",
  "harun.rashid@savethechildren.org",
  "harun.rashid1@savethechildren.org",
  "hassanmdnasir@gmail.com",
  "helalahmed.ng@gmail.com",
  "hfo.dascoh@gmail.com",
  "homayun.shimantik@gmail.com",
  "hosnearapingky@gmail.com",
  "htucricmncsp@gmail.com",
  "htufricmncsp@gmail.com",
  "iftekhar.hossen@savethechildren.org",
  "israt.nayer@savethechildren.org",
  "jacqui@cohsasa.co.za",
  "jahangir.mncsp@psks-gm.org",
  "jamal.mncsp@psks-gm.org",
  "jamidul.mncsp@psks-gm.org",
  "jamil.zaman@savethechildren.org",
  "jatan.bhowmick@savethechildren.org",
  "jellyakter2@gmail.com",
  "jesminbl73@gmail.com",
  "juddin72@gmail.com",
  "junaed@icddrb.org",
  "kabirul.abedin@savethechildren.org",
  "kamalbarud@gmail.com",
  "kamalhossain.dascoh@gmail.com",
  "kamruzzaman.dascoh@gmail.com",
  "kazihussan35@gmail.com",
  "kbucricmncsp@gmail.com",
  "kbufricmncsp@gmail.com",
  "khursidulislam.dascoh@gmail.com",
  "knjoku@IHI.org",
  "koysor07@gmail.com",
  "Kristin.Vogt@jhpiego.org",
  "Kusum.Thapa@jhpiego.org",
  "kzaman@psks-gm.org",
  "lcameron@ihi.org",
  "lipibegum233@gmail.com",
  "lmacy@ihi.org",
  "Lore.Businge@jhpiego.org",
  "mafijurrahman@ymail.com",
  "mahboba.jahan@icddrb.org",
  "mahmoodur.rahman@icddrb.org",
  "mahmud.talukdar@savethechildren.org",
  "majedur@dnet.org.bd",
  "maksud.hasan@savethechildren.org",
  "mamun.bhuiyan@savethechildren.org",
  "mamunur.rasel@savethechildren.org",
  "mamun-ur.rashid@savethechildren.org",
  "masudul.kabir1@savethechildren.org",
  "masum.ahmad@savethechildren.org",
  "masum.mncsp@psks-gm.org",
  "Mayesha.dascoh@gmail.com",
  "md.alamgir@savethechildren.org",
  "md.monowar98@yahoo.com",
  "md.shahidullah@savethechildren.org",
  "mdjahiduj@icddrb.org",
  "mdjamal.uddin@savethechildren.org",
  "mdmijanbd984@gmail.com",
  "mdmomin.dascoh@gmail.com",
  "mdnazrul.islam@savethechildren.org",
  "mdsafiullah411@gmail.com",
  "memdad@icddrb.org",
  "mghatosi@gmail.com",
  "mimmahmud90@gmail.com",
  "minara.chowdhury@savethechildren.org",
  "minu.ahmed@savethechildren.org",
  "mithumhr@gmail.com",
  "mitumistry64@gmail.com",
  "mizan@dnet.org.bd",
  "mmoin@IHI.org",
  "modondas.dascoh@gmail.com",
  "mohammed.moniruzzaman@savethechildren.org",
  "mohammed.moniruzzaman@savethechildren.org",
  "mojahid.feroj@savethechildren.org",
  "moksed@shimantik.com",
  "moktatherul.haque@savethechildren.org",
  "moriam.mncsp@psks-gm.org",
  "mostafa.dascoh@gmail.com",
  "mostafezur.rahaman@dnet.org.bd",
  "mozammel.dascoh@gmail.com",
  "mrinal.mncsp@psks-gm.org",
  "mstanzler@IHI.org",
  "muarrf@phd-bd.com",
  "muhibbul.abrar@savethechildren.org",
  "mukta.devbd@gmail.com",
  "mukul.mncsp@psks-gm.org",
  "munia.islam@savethechildren.org",
  "munna.shotonami@dnet.org.bd",
  "murad.khan@savethechildren.org",
  "nadiyatulferdous6024@gmail.com",
  "najim.uddin@savethechildren.org",
  "nakul.biswas@savethechildren.org",
  "nasrinakter7682@gmail.com",
  "nazia.ali@icddrb.org",
  "nazmoon.nahar@savethechildren.org",
  "nazmul.kabir@savethechildren.org",
  "n-faruq@phd-bd.com",
  "nilukanto.dascoh@gmail.com",
  "nneka.mobisson@mymdoc.com",
  "Not having email address",
  "Not having email address",
  "Not having email address",
  "Not having email address",
  "Not having email address",
  "Not having email address",
  "Not having email address",
  "nrimu1996@gmail.com",
  "nurnaharnurnahar470@gmail.com",
  "nurulalam.dascoh@gmail.com",
  "omar.farook@savethechildren.org",
  "osama.shamsuddin@savethechildren.org",
  "pandob.kumar@savethechildren.org",
  "parimal.shaha@savethechildren.org",
  "pbarker@IHI.org",
  "priyota@phd-bd.com",
  "proshanta.mondal@savethechildren.org",
  "prucricmncsp@gmail.com",
  "prufricmncsp@gmail.com",
  "psksecphq@gmail.com",
  "psksmeherpur@gmail.com",
  "psofeniric@gmail.com",
  "qsrahman@icddrb.org",
  "rabia.mncsp@psks-gm.org",
  "rafique.dascoh@gmail.com",
  "rafique7793@gmail.com",
  "raihan.sharif@savethechildren.org",
  "rakibamm@gmail.com",
  "rakibul.ca@gmail.com",
  "ramendra.mallik@savethechildren.org",
  "rani.mncsp@psks-gm.org",
  "rashidul.azad@icddrb.org",
  "reza@phd-bd.com",
  "rezwana.ferdous@savethechildren.org",
  "riel@cohsasa.co.za",
  "rinko10@gmail.com",
  "rmmncspric@gmail.com",
  "rouf.mncsp@psks-gm.org",
  "roushan.begum@savethechildren.org",
  "rowshon.jahan@savethechildren.org",
  "royuttam71@gmail.com",
  "rsheehab@ihi.org",
  "rumakhatun88@gmail.com",
  "rupam.das@savethechildren.org",
  "rustom.dascoh@gmail.com",
  "Sabrina.sharmin@icddrb.org",
  "s-ahmed@phd-bd.com",
  "Saidul.Haque@jhpiego.org",
  "salah.uddin@savethechildren.org",
  "salam.mncsp@psks-gm.org",
  "salma.mukta@phd-bd.com",
  "salmasultana384@gmail.com",
  "samina.yasmin@savethechildren.org",
  "sangitabiswas29@gmail.com",
  "sanjida.alam@savethechildren.org",
  "sankardas.dascoh@gmail.com",
  "sarwar.topu@gmail.com",
  "saurav.wahid@dnet.org.bd",
  "sayemaccess@gmail.com",
  "sayma.islam@dnet.org.bd",
  "scucricmncsp@gmail.com",
  "scufricmncsp@gmail.com",
  "sducricmncsp@gmail.com",
  "sdufricmncsp@gmail.com",
  "setara.rahman@savethechildren.org",
  "setara.rahman@savethechildren.org",
  "shahabzzzboy@gmail.com",
  "shahed.chaklader@savethechildren.org",
  "Shahnaz.dascoh@gmail.com",
  "shakil.khan@savethechildren.org",
  "shamim@icddrb.org",
  "shams@icddrb.org",
  "shantona.mncsp@psks-gm.org",
  "sharmin.mncsp@psks-gm.org",
  "sharminjitu138@gmail.com",
  "shawkat.ara@savethechildren.org",
  "She resigned, has been  effected from last 28th June 2020",
  "She resigned, has been effected from last 11th May 2020",
  "sheilaleatherman@gmail.com",
  "shikdarmstrebena@gmail.com",
  "shilpiranibarmon1996@gmail.com",
  "shimantikmamonibbdm@gmail.com",
  "shimantikmamonidp@gmail.com",
  "shimantikmamonimg@gmail.com",
  "shimantikmamonimncsp.aj@gmail.com",
  "shimantikmamonimncsp.bania@gmail.com",
  "shimantikmamonimncsp.bb@gmail.com",
  "shimantikmamonimncsp.cg@gmail.com",
  "shimantikmamonimncsp.ha@gmail.com",
  "shimantikmamonimncsp.lk.uf@gmail.com",
  "shimantikmamonimncsp.mp.uf@gmail.com",
  "shimantikmamonimncsp.mp@gmail.com",
  "shimantikmamonimncsp.ms@gmail.com",
  "shimantikmamonimncsp.ng.uc@gmail.com",
  "shimantikmamonimncsp.pso@gmail.com",
  "shimantikmamonimncsp.sd@gmail.com",
  "shimantikmamonimncspnabiganj@gmail.com",
  "shimantikmamonimsa@gmail.com",
  "shirin.islam@icddrb.org",
  "shofiq.islam@dnet.org.bd",
  "shossain1287@gmail.com",
  "shulmisbah08@gmail.com",
  "shumona.shafinaz@savethechildren.org",
  "shuvo.barman@savethechildren.org",
  "shuvraroy76@yahoo.com",
  "shyamol.shil@savethechildren.org",
  "sirajul.hossain@dnet.org.bd",
  "sislampir@gmail.com",
  "sknazmakhanampm@gmail.com",
  "sm.rokonuzzaman@icddrb.org",
  "smucricmncsp@gmail.com",
  "smufricmncsp@gmail.com",
  "snucricmncsp@gmail.com",
  "snufricmncsp@gmail.com",
  "sofiul.shimantik@gmail.com",
  "sohelkhan201573@gmail.com",
  "sorna.hagidok@gmail.com",
  "subal.shom@savethechildren.org",
  "sujan.chowdhury@savethechildren.org",
  "sukamal.roy@savethechildren.org",
  "sumon.biswas@savethechildren.org",
  "sumon.kumar@savethechildren.org",
  "sumona.ferdous@savethechildren.org",
  "sumonayesha1991@gmail.com",
  "sunil.mncsp@psks-gm.org",
  "suruj@phd-bd.com",
  "ta.robin@savethechildren.org",
  "tahmina.akter@jhpiego.org",
  "tahmina.akter@jhpiego.org",
  "tajul.islam1@savethechildren.org",
  "tangina.siddique@savethechildren.ogr",
  "tanjim.hasan@dnet.org.bd",
  "tanvir.ahamed@dnet.org.bd",
  "tapas.saha@savethechildren.org",
  "tarikul8384@gmail.com",
  "tbolender@IHI.org",
  "tbrito@ihi.org",
  "Tinni.Yasmin@jhpiego.org",
  "ucmamonimncspricch@gmail.com",
  "ucmamonimncspricsg@gmail.com",
  "ufmamonimncspric@gmail.com",
  "ufmamonimncspricsg@gmail.com",
  "umme.meena@savethechildren.org",
  "utpal.barua@savethechildren.org",
  "utpaldas992@gmail.com",
  "utpol.das@dnet.org.bd",
  "wahiduzzaman.dascoh@gmail.com",
  "waliul.Shimantik@gmail.com",
  "waziur@dnet.org.bd",
  "yeasmin.begum@savethechildren.org",
  "zahiruislam.dascoh@gmail.com",
  "zakir.hossain2@savethechildren.org",
  "zakir@icddrb.org",
  "zakirhossain.dascoh@gmail.com",
  "ziaur.rahman@savethechildren.org",
  "zibonnahar940@gmail.com",
  "zohra@phd-bd.com",
  "zubair.shams@savethechildren.org",
  "Zulekha2hasan@gmail.com",
  "mohammad.shahed.chaklader@gmail.com"]